Import Data: Relevant data for the project
…
  # export long format
  rio::export(metaviz_long, metaviz_long_path)
  
} else {
  # Code to be executed if the file does exist
  cat("The file already exists. Skipping computation.\n")
  
  rio::import(metaviz_long_path)
}

## The file already exists. Skipping computation.

## # A tibble: 31,984 × 8
##    syear    pid hid   key          value key_label                                      key_category   key_name_label                                              
##    <int>  <int> <chr> <chr>        <dbl> <chr>                                          <ord>          <chr>                                                       
##  1  2006 445301 tnC8s kidpnr03        NA PID 3. Child                                   ID's           kidpnr03: PID 3. Child                                      
##  2  2000 249963 XZorj k_rel           NA Relationship To Head Of Household              Other          k_rel: Relationship To Head Of Household                    
##  3  2012 276915 jHnP9 kidpnr06        NA PID 6. Child                                   ID's           kidpnr06: PID 6. Child                                      
##  4  2003 125566 yBIQC risk_finance    NA Willingness To Take Risks In Financial Matters Psych. Measure risk_finance: Willingness To Take Risks In Financial Matters
##  5  2001 543584 VL6il b5_neuro_2      NA Somewhat Nervous                               Psych. Measure b5_neuro_2: Somewhat Nervous                                
##  6  2013 557636 xLZ99 kidpnr07        NA PID 7. Child                                   ID's           kidpnr07: PID 7. Child                                      
##  7  2004 292307 hsOEq iabaut1         NA I often notice small sounds when others do not Psych. Measure iabaut1: I often notice small sounds when others do not     
##  8  2014 234817 4cpqT kidpnr07        NA PID 7. Child                                   ID's           kidpnr07: PID 7. Child                                      
##  9  2001 551204 AmosS cogtest_02      NA Sum Of All Numerical Entries In 60s            Psych. Measure cogtest_02: Sum Of All Numerical Entries In 60s             
## 10  2001 427773 mrrOR recip_4         NA Help Those Who Help Me                         Psych. Measure recip_4: Help Those Who Help Me                             
## # ℹ 31,974 more rows
…
